\relax 
\providecommand\zref@newlabel[2]{}
\providecommand{\transparent@use}[1]{}
\zref@newlabel{mdf@pagelabel-1}{\default{1.1}\page{4}\abspage{4}\mdf@pagevalue{4}}
\zref@newlabel{mdf@pagelabel-2}{\default{1.1}\page{4}\abspage{4}\mdf@pagevalue{4}}
\zref@newlabel{mdf@pagelabel-3}{\default{1.1}\page{5}\abspage{5}\mdf@pagevalue{5}}
\zref@newlabel{mdf@pagelabel-4}{\default{1.1}\page{5}\abspage{5}\mdf@pagevalue{5}}
\zref@newlabel{mdf@pagelabel-5}{\default{1.1}\page{6}\abspage{6}\mdf@pagevalue{6}}
\zref@newlabel{mdf@pagelabel-6}{\default{1.1}\page{6}\abspage{6}\mdf@pagevalue{6}}
\zref@newlabel{mdf@pagelabel-7}{\default{1.1}\page{6}\abspage{6}\mdf@pagevalue{6}}
\zref@newlabel{mdf@pagelabel-8}{\default{1.1}\page{7}\abspage{7}\mdf@pagevalue{7}}
\zref@newlabel{mdf@pagelabel-9}{\default{1.1}\page{8}\abspage{8}\mdf@pagevalue{8}}
\zref@newlabel{mdf@pagelabel-10}{\default{1.1}\page{10}\abspage{10}\mdf@pagevalue{10}}
\zref@newlabel{mdf@pagelabel-11}{\default{1.1}\page{11}\abspage{11}\mdf@pagevalue{11}}
\@setckpt{tex/parcial1/grupos}{
\setcounter{page}{15}
\setcounter{equation}{6}
\setcounter{enumi}{11}
\setcounter{enumii}{0}
\setcounter{enumiii}{0}
\setcounter{enumiv}{0}
\setcounter{footnote}{0}
\setcounter{mpfootnote}{0}
\setcounter{part}{0}
\setcounter{chapter}{1}
\setcounter{section}{1}
\setcounter{subsection}{0}
\setcounter{subsubsection}{0}
\setcounter{paragraph}{0}
\setcounter{subparagraph}{0}
\setcounter{figure}{0}
\setcounter{table}{0}
\setcounter{float@type}{4}
\setcounter{caption@flags}{0}
\setcounter{ContinuedFloat}{0}
\setcounter{subfigure}{0}
\setcounter{subtable}{0}
\setcounter{mdf@globalstyle@cnt}{0}
\setcounter{mdfcountframes}{0}
\setcounter{mdf@env@i}{0}
\setcounter{mdf@env@ii}{0}
\setcounter{mdf@zref@counter}{11}
\setcounter{tabx@nest}{0}
\setcounter{listtotal}{0}
\setcounter{listcount}{0}
\setcounter{liststart}{0}
\setcounter{liststop}{0}
\setcounter{citecount}{0}
\setcounter{citetotal}{0}
\setcounter{multicitecount}{0}
\setcounter{multicitetotal}{0}
\setcounter{instcount}{0}
\setcounter{maxnames}{3}
\setcounter{minnames}{1}
\setcounter{maxitems}{3}
\setcounter{minitems}{1}
\setcounter{citecounter}{0}
\setcounter{maxcitecounter}{0}
\setcounter{savedcitecounter}{0}
\setcounter{uniquelist}{0}
\setcounter{uniquename}{0}
\setcounter{refsection}{0}
\setcounter{refsegment}{0}
\setcounter{maxextratitle}{0}
\setcounter{maxextratitleyear}{0}
\setcounter{maxextraname}{0}
\setcounter{maxextradate}{0}
\setcounter{maxextraalpha}{0}
\setcounter{abbrvpenalty}{50}
\setcounter{highnamepenalty}{50}
\setcounter{lownamepenalty}{25}
\setcounter{maxparens}{3}
\setcounter{parenlevel}{0}
\setcounter{mincomprange}{10}
\setcounter{maxcomprange}{100000}
\setcounter{mincompwidth}{1}
\setcounter{afterword}{0}
\setcounter{savedafterword}{0}
\setcounter{annotator}{0}
\setcounter{savedannotator}{0}
\setcounter{author}{0}
\setcounter{savedauthor}{0}
\setcounter{bookauthor}{0}
\setcounter{savedbookauthor}{0}
\setcounter{commentator}{0}
\setcounter{savedcommentator}{0}
\setcounter{editor}{0}
\setcounter{savededitor}{0}
\setcounter{editora}{0}
\setcounter{savededitora}{0}
\setcounter{editorb}{0}
\setcounter{savededitorb}{0}
\setcounter{editorc}{0}
\setcounter{savededitorc}{0}
\setcounter{foreword}{0}
\setcounter{savedforeword}{0}
\setcounter{holder}{0}
\setcounter{savedholder}{0}
\setcounter{introduction}{0}
\setcounter{savedintroduction}{0}
\setcounter{namea}{0}
\setcounter{savednamea}{0}
\setcounter{nameb}{0}
\setcounter{savednameb}{0}
\setcounter{namec}{0}
\setcounter{savednamec}{0}
\setcounter{translator}{0}
\setcounter{savedtranslator}{0}
\setcounter{shortauthor}{0}
\setcounter{savedshortauthor}{0}
\setcounter{shorteditor}{0}
\setcounter{savedshorteditor}{0}
\setcounter{labelname}{0}
\setcounter{savedlabelname}{0}
\setcounter{institution}{0}
\setcounter{savedinstitution}{0}
\setcounter{lista}{0}
\setcounter{savedlista}{0}
\setcounter{listb}{0}
\setcounter{savedlistb}{0}
\setcounter{listc}{0}
\setcounter{savedlistc}{0}
\setcounter{listd}{0}
\setcounter{savedlistd}{0}
\setcounter{liste}{0}
\setcounter{savedliste}{0}
\setcounter{listf}{0}
\setcounter{savedlistf}{0}
\setcounter{location}{0}
\setcounter{savedlocation}{0}
\setcounter{organization}{0}
\setcounter{savedorganization}{0}
\setcounter{origlocation}{0}
\setcounter{savedoriglocation}{0}
\setcounter{origpublisher}{0}
\setcounter{savedorigpublisher}{0}
\setcounter{publisher}{0}
\setcounter{savedpublisher}{0}
\setcounter{language}{0}
\setcounter{savedlanguage}{0}
\setcounter{origlanguage}{0}
\setcounter{savedoriglanguage}{0}
\setcounter{pageref}{0}
\setcounter{savedpageref}{0}
\setcounter{textcitecount}{0}
\setcounter{textcitetotal}{0}
\setcounter{textcitemaxnames}{0}
\setcounter{biburlnumpenalty}{9000}
\setcounter{biburlucpenalty}{9000}
\setcounter{biburllcpenalty}{5000}
\setcounter{smartand}{1}
\setcounter{bbx:relatedcount}{0}
\setcounter{bbx:relatedtotal}{0}
\setcounter{parentequation}{0}
\setcounter{AM@survey}{0}
\setcounter{theorem}{0}
\setcounter{proposition}{8}
\setcounter{axiom}{0}
\setcounter{problem}{1}
\setcounter{lemma}{0}
\setcounter{definition}{11}
}
