# Fdb version 3
["biber apuntes"] 1573780989 "apuntes.bcf" "apuntes.bbl" "apuntes" 1573780989
  "apuntes.bcf" 1573780987 126976 e00f95508b6b382f9f98755c260fb487 "pdflatex"
  (generated)
  "apuntes.bbl"
  "apuntes.blg"
["pdflatex"] 1573780990 "apuntes.tex" "apuntes.pdf" "apuntes" 1573780990
  "/dev/null" 1573703460 0 d41d8cd98f00b204e9800998ecf8427e ""
  "/usr/share/texmf-dist/fonts/enc/dvips/base/8r.enc" 1572595918 4850 80dc9bab7f31fb78a000ccfed0e27cab ""
  "/usr/share/texmf-dist/fonts/map/fontname/texfonts.map" 1572595918 3332 103109f5612ad95229751940c61aada0 ""
  "/usr/share/texmf-dist/fonts/tfm/jknappen/ec/ecrm1095.tfm" 1572595918 3584 929cdff2b7a8c11bd4d49fd68cb0ae70 ""
  "/usr/share/texmf-dist/fonts/tfm/public/cm/cmr10.tfm" 1572595918 1296 45809c5a464d5f32c8f98ba97c1bb47f ""
  "/usr/share/texmf-dist/fonts/tfm/public/pxfonts/p1xb.tfm" 1572595918 3480 4a2cca9a130356f55b55bfb9d9b79fe9 ""
  "/usr/share/texmf-dist/fonts/tfm/public/pxfonts/p1xbi.tfm" 1572595918 3832 2b80a3891bb3008132049774c7bdf42a ""
  "/usr/share/texmf-dist/fonts/tfm/public/pxfonts/p1xi.tfm" 1572595918 3720 f8765c50ed687db6e3f274285b61ce03 ""
  "/usr/share/texmf-dist/fonts/tfm/public/pxfonts/p1xr.tfm" 1572595918 3852 21e5185be576d33a8e695a3e0c97f956 ""
  "/usr/share/texmf-dist/fonts/tfm/public/pxfonts/p1xsc.tfm" 1572595918 6384 6d7e6916ce4a7c84b0cdf8b0bce13cdf ""
  "/usr/share/texmf-dist/fonts/tfm/public/pxfonts/p1xsl.tfm" 1572595918 4004 727116755efa3d4bc85f9ab04329d98e ""
  "/usr/share/texmf-dist/fonts/tfm/public/pxfonts/pxex.tfm" 1572595918 1088 b1a11d38cc309c3730510ab8754a87f8 ""
  "/usr/share/texmf-dist/fonts/tfm/public/pxfonts/pxexa.tfm" 1572595918 688 f71e37dcb0a7fbd767c92834041ac9b7 ""
  "/usr/share/texmf-dist/fonts/tfm/public/pxfonts/pxi.tfm" 1572595918 2032 2261fc76aaf0fe0efda112d373d1e669 ""
  "/usr/share/texmf-dist/fonts/tfm/public/pxfonts/pxmi.tfm" 1572595918 1896 2285361369ef8697473796d7404b21c5 ""
  "/usr/share/texmf-dist/fonts/tfm/public/pxfonts/pxmia.tfm" 1572595918 988 b9a2297a65a418b9961eda10f53cd078 ""
  "/usr/share/texmf-dist/fonts/tfm/public/pxfonts/pxr.tfm" 1572595918 2104 85b979d991702a9f3c087b780f815c50 ""
  "/usr/share/texmf-dist/fonts/tfm/public/pxfonts/pxsy.tfm" 1572595918 1124 1927b04aea38ae3fabe4f4559c3a7d21 ""
  "/usr/share/texmf-dist/fonts/tfm/public/pxfonts/pxsya.tfm" 1572595918 964 a1fd6cdaac8937f6b68b03d99f0e3b92 ""
  "/usr/share/texmf-dist/fonts/tfm/public/pxfonts/pxsyb.tfm" 1572595918 1052 51dddc971c67ab898998be053ea81539 ""
  "/usr/share/texmf-dist/fonts/tfm/public/pxfonts/pxsyc.tfm" 1572595918 1080 dce487e517c7b5827675202ed17562a2 ""
  "/usr/share/texmf-dist/fonts/tfm/public/pxfonts/rpxb.tfm" 1572595918 1028 ca2391ce88fb0cd3c14712033cc3cbc5 ""
  "/usr/share/texmf-dist/fonts/tfm/public/pxfonts/rpxbi.tfm" 1572595918 1056 01404917e28b8587ca6376b5aeda3c04 ""
  "/usr/share/texmf-dist/fonts/tfm/public/pxfonts/rpxi.tfm" 1572595918 1044 04fcac643c4ee6933dd088b959adc802 ""
  "/usr/share/texmf-dist/fonts/tfm/public/pxfonts/rpxmi.tfm" 1572595918 1012 054642f3c9e8aa99d474c2c322e99b5a ""
  "/usr/share/texmf-dist/fonts/tfm/public/pxfonts/rpxpplb.tfm" 1572595918 2536 aef1f71dcf965280c205408a52c2d045 ""
  "/usr/share/texmf-dist/fonts/tfm/public/pxfonts/rpxpplbi.tfm" 1572595918 2792 c976a6af79140605673506f5fdda35cf ""
  "/usr/share/texmf-dist/fonts/tfm/public/pxfonts/rpxpplr.tfm" 1572595918 2800 9aa3469800906f6a88df141cc3ffb02c ""
  "/usr/share/texmf-dist/fonts/tfm/public/pxfonts/rpxpplri.tfm" 1572595918 2728 4b4b6637cf36958d09a5c0783164477e ""
  "/usr/share/texmf-dist/fonts/tfm/public/pxfonts/rpxpplro.tfm" 1572595918 2952 6320cfcbd1e7b03fddf258af3d47be0a ""
  "/usr/share/texmf-dist/fonts/tfm/public/pxfonts/rpxr.tfm" 1572595918 1044 f70cfa4bf09ff6eb95520515850796cf ""
  "/usr/share/texmf-dist/fonts/tfm/public/pxfonts/rpxsc.tfm" 1572595918 1424 76c5173e2cf7018532d069900cd31a78 ""
  "/usr/share/texmf-dist/fonts/tfm/public/pxfonts/rpxsl.tfm" 1572595918 1104 5f8b9f88d6428b032a446e02159e6cdb ""
  "/usr/share/texmf-dist/fonts/type1/public/pxfonts/pxex.pfb" 1572595918 18964 e01e97f07816aeb524ad5d4384a80c12 ""
  "/usr/share/texmf-dist/fonts/type1/public/pxfonts/pxmia.pfb" 1572595918 21252 cb2897d23bc8718f98581102d7d28fb2 ""
  "/usr/share/texmf-dist/fonts/type1/public/pxfonts/pxsy.pfb" 1572595918 20626 c69c2224fbde54aa240f5ed20226d7da ""
  "/usr/share/texmf-dist/fonts/type1/public/pxfonts/pxsya.pfb" 1572595918 18977 d519a3bb9f65e0228905a11ced42d626 ""
  "/usr/share/texmf-dist/fonts/type1/public/pxfonts/pxsyb.pfb" 1572595918 24771 eb123b1d6db1a8a40172a27eb12cf6d5 ""
  "/usr/share/texmf-dist/fonts/type1/public/pxfonts/pxsyc.pfb" 1572595918 28027 7846449d09ca7f6d84fc47b092eb4f86 ""
  "/usr/share/texmf-dist/fonts/type1/public/pxfonts/rpxmi.pfb" 1572595918 14672 0093e684026e66eef888939395e1a17d ""
  "/usr/share/texmf-dist/fonts/type1/public/pxfonts/rpxr.pfb" 1572595918 7191 79607a98b23ce10ce99a66b7d89948fa ""
  "/usr/share/texmf-dist/fonts/type1/public/pxfonts/rpxsc.pfb" 1572595918 13670 751c9dc81ac529b3b50b3b9f166f576e ""
  "/usr/share/texmf-dist/fonts/type1/urw/palatino/uplb8a.pfb" 1572595918 52406 dad2f72863a03727d5f536c64a69c452 ""
  "/usr/share/texmf-dist/fonts/type1/urw/palatino/uplbi8a.pfb" 1572595918 51285 96e6ac8305d3a03d04d7ee3879e2710e ""
  "/usr/share/texmf-dist/fonts/type1/urw/palatino/uplr8a.pfb" 1572595918 52665 661b1e6b26edb5f50dd491f8a701cb57 ""
  "/usr/share/texmf-dist/fonts/type1/urw/palatino/uplri8a.pfb" 1572595918 50022 90249cba7e3e4e9845f80328d6f9bd13 ""
  "/usr/share/texmf-dist/fonts/vf/public/pxfonts/p1xb.vf" 1572595918 2128 cceefa9672dc5a3723b85d8a3934e890 ""
  "/usr/share/texmf-dist/fonts/vf/public/pxfonts/p1xbi.vf" 1572595918 2136 03b83d12aaa488421f92792a3ec453a4 ""
  "/usr/share/texmf-dist/fonts/vf/public/pxfonts/p1xi.vf" 1572595918 2128 7c9e7c7c814addc8e382f3c12b0957ee ""
  "/usr/share/texmf-dist/fonts/vf/public/pxfonts/p1xr.vf" 1572595918 2136 b4bded97ac241264f4d3d08017ac8cea ""
  "/usr/share/texmf-dist/fonts/vf/public/pxfonts/p1xsc.vf" 1572595918 2416 acada7091d7609748dd2e42412dee949 ""
  "/usr/share/texmf-dist/fonts/vf/public/pxfonts/p1xsl.vf" 1572595918 2136 dde77bd540d288a2e275c52dcc189672 ""
  "/usr/share/texmf-dist/fonts/vf/public/pxfonts/pxmi.vf" 1572595918 904 5ba7c68451363e68872ad96afb997cb3 ""
  "/usr/share/texmf-dist/fonts/vf/public/pxfonts/pxr.vf" 1572595918 904 f381183b2453cc3e4d7ff6dbe2e0a368 ""
  "/usr/share/texmf-dist/tex/context/base/mkii/supp-pdf.mkii" 1572595918 71627 94eb9990bed73c364d7f53f960cc8c5b ""
  "/usr/share/texmf-dist/tex/generic/babel-spanish/spanish.ldf" 1572595918 26223 0286ca123141cff8dd4956c4576d2ef4 ""
  "/usr/share/texmf-dist/tex/generic/babel/babel.def" 1572595918 81804 3bb5472a03aeb22f281905fcc1b735b2 ""
  "/usr/share/texmf-dist/tex/generic/babel/babel.sty" 1572595918 19267 b3fa1edb8df025e71f6c509aae11febb ""
  "/usr/share/texmf-dist/tex/generic/babel/switch.def" 1572595918 14543 c96dc306f16879b3fe9b42eccb82621a ""
  "/usr/share/texmf-dist/tex/generic/babel/txtbabel.def" 1572595918 5178 5b21c28f495420030a8aa1a19d21f35f ""
  "/usr/share/texmf-dist/tex/generic/ifxetex/ifxetex.sty" 1572595918 1458 43ab4710dc82f3edeabecd0d099626b2 ""
  "/usr/share/texmf-dist/tex/generic/oberdiek/atbegshi.sty" 1572595918 24580 144573175d90c8e36676f97ae1d11ec2 ""
  "/usr/share/texmf-dist/tex/generic/oberdiek/etexcmds.sty" 1572595918 7612 729a8cc22a1ee0029997c7f74717ae05 ""
  "/usr/share/texmf-dist/tex/generic/oberdiek/gettitlestring.sty" 1572595918 8237 3b62ef1f7e2c23a328c814b3893bc11f ""
  "/usr/share/texmf-dist/tex/generic/oberdiek/hobsub-generic.sty" 1572595918 185392 ed78c0cbc4fc8c3af82e7bffbdeeb1a9 ""
  "/usr/share/texmf-dist/tex/generic/oberdiek/hobsub-hyperref.sty" 1572595918 70864 bcd5b216757bd619ae692a151d90085d ""
  "/usr/share/texmf-dist/tex/generic/oberdiek/ifluatex.sty" 1572595918 7324 2310d1247db0114eb4726807c8837a0e ""
  "/usr/share/texmf-dist/tex/generic/oberdiek/ifpdf.sty" 1572595918 1300 96620a7d94bc0ceb261d968770ce8315 ""
  "/usr/share/texmf-dist/tex/generic/oberdiek/infwarerr.sty" 1572595918 8253 473e0e41f9adadb1977e8631b8f72ea6 ""
  "/usr/share/texmf-dist/tex/generic/oberdiek/kvdefinekeys.sty" 1572595918 5152 b67a3a964ad9851e095110c854a1d461 ""
  "/usr/share/texmf-dist/tex/generic/oberdiek/kvsetkeys.sty" 1572595918 14040 ac8866aac45982ac84021584b0abb252 ""
  "/usr/share/texmf-dist/tex/generic/oberdiek/ltxcmds.sty" 1572595918 18425 5b3c0c59d76fac78978b5558e83c1f36 ""
  "/usr/share/texmf-dist/tex/generic/oberdiek/pdftexcmds.sty" 1572595918 20457 7f1b68cac266f44439ba63b922267486 ""
  "/usr/share/texmf-dist/tex/generic/unicode-data/UnicodeData.txt" 1572595918 1797778 755f6af699f8c8d2d958da411f78f6c6 ""
  "/usr/share/texmf-dist/tex/generic/xkeyval/xkeyval.tex" 1572595918 19231 26434a5656c684f5ffb1f26f98006baa ""
  "/usr/share/texmf-dist/tex/generic/xkeyval/xkvutils.tex" 1572595918 7677 6f5ce7c1124cad7ec57d05b2562bd8fe ""
  "/usr/share/texmf-dist/tex/latex/adjustbox/adjcalc.sty" 1572592815 5608 e823b3adfbc2ea70e453a21ea6e2ee12 ""
  "/usr/share/texmf-dist/tex/latex/adjustbox/adjustbox.sty" 1572592815 55974 e90ddd9a6114a7008a6915da904f2847 ""
  "/usr/share/texmf-dist/tex/latex/adjustbox/tc-pdftex.def" 1572592815 4061 aa67e478bd1a58a42e026c354f10b158 ""
  "/usr/share/texmf-dist/tex/latex/adjustbox/trimclip.sty" 1572592815 7142 42aaa49a4afcdc52e9d95e3b19f439be ""
  "/usr/share/texmf-dist/tex/latex/amscls/amsthm.sty" 1572595918 12604 3dec726c041422879dc3268237f09026 ""
  "/usr/share/texmf-dist/tex/latex/amsmath/amsbsy.sty" 1572595918 2211 ca7ce284ab93c8eecdc6029dc5ccbd73 ""
  "/usr/share/texmf-dist/tex/latex/amsmath/amsgen.sty" 1572595918 4161 7f6eb9092061a11f87d08ed13515b48d ""
  "/usr/share/texmf-dist/tex/latex/amsmath/amsmath.sty" 1572595918 85514 eb45164c0234a1f8e9b74aa2f583bc21 ""
  "/usr/share/texmf-dist/tex/latex/amsmath/amsopn.sty" 1572595918 4116 32e6abd27229755a83a8b7f18e583890 ""
  "/usr/share/texmf-dist/tex/latex/amsmath/amstext.sty" 1572595918 2432 8ff93b1137020e8f21930562a874ae66 ""
  "/usr/share/texmf-dist/tex/latex/base/bk11.clo" 1572595918 8260 00bfc4b2dfebeb35dc69a9846eafecd1 ""
  "/usr/share/texmf-dist/tex/latex/base/book.cls" 1572595918 23055 a0c51513e424517b35c8e02a06953cfc ""
  "/usr/share/texmf-dist/tex/latex/base/fontenc.sty" 1572595918 4571 68999fcec19eaab44a6e13159b4dca8a ""
  "/usr/share/texmf-dist/tex/latex/base/ifthen.sty" 1572595918 5159 069c1682fef6225a1e2967ca0fe174f6 ""
  "/usr/share/texmf-dist/tex/latex/base/inputenc.sty" 1572595918 5050 aae684508bdbe288a555910330f17c1b ""
  "/usr/share/texmf-dist/tex/latex/base/t1enc.def" 1572595918 10687 a7567925dae1870ed1d4a2e413995d60 ""
  "/usr/share/texmf-dist/tex/latex/base/textcomp.sty" 1572595918 16154 aa2e2ccb4112a609f28cbe297c11ef1d ""
  "/usr/share/texmf-dist/tex/latex/base/ts1cmr.fd" 1572595918 2431 cc3b740992f1bf33ee159b31f0710d60 ""
  "/usr/share/texmf-dist/tex/latex/base/ts1enc.def" 1572595918 7767 e781dcaece5057ee9243d19755558b5a ""
  "/usr/share/texmf-dist/tex/latex/base/ts1enc.dfu" 1572595918 5059 63136e20674995b16bae7eab2e006347 ""
  "/usr/share/texmf-dist/tex/latex/biblatex-chicago/biblatex-chicago.sty" 1572567841 5892 2d077a1b3db1aa220ae4a2498504aac1 ""
  "/usr/share/texmf-dist/tex/latex/biblatex-chicago/chicago-notes.bbx" 1572567841 82580 e0c51335f58b66629cbda67a4dcd91b1 ""
  "/usr/share/texmf-dist/tex/latex/biblatex-chicago/chicago-notes.cbx" 1572567841 206632 9de5b1f99755df4bc01ec19a7e893648 ""
  "/usr/share/texmf-dist/tex/latex/biblatex/biblatex.cfg" 1572567841 69 249fa6df04d948e51b6d5c67bea30c42 ""
  "/usr/share/texmf-dist/tex/latex/biblatex/biblatex.def" 1572567841 89841 f62b06d56749b219e24521443b5d62fa ""
  "/usr/share/texmf-dist/tex/latex/biblatex/biblatex.sty" 1572567841 486351 35bd8b4d043ca2e145d6acbaf9bbccc3 ""
  "/usr/share/texmf-dist/tex/latex/biblatex/blx-compat.def" 1572567841 13136 44dd5518476508a5daf59afd6ef412e0 ""
  "/usr/share/texmf-dist/tex/latex/biblatex/blx-dm.def" 1572567841 31423 d09ac6e211af72fef55df039a2b3c3d6 ""
  "/usr/share/texmf-dist/tex/latex/biblatex/lbx/american.lbx" 1572567841 169 40f2892b6b9cee1ffa9c07b78605a5a1 ""
  "/usr/share/texmf-dist/tex/latex/biblatex/lbx/english.lbx" 1572567841 38102 0107e531be1e2d63345edc3b268e7658 ""
  "/usr/share/texmf-dist/tex/latex/biblatex/lbx/spanish.lbx" 1572567841 47003 29d8a8938c1fb30ecd0264a437d2db7e ""
  "/usr/share/texmf-dist/tex/latex/booktabs/booktabs.sty" 1572595918 5950 e9cdc09d1426cd2e1a36fffb0c90bfa9 ""
  "/usr/share/texmf-dist/tex/latex/caption/caption.sty" 1572595918 68688 0117141b30e5c5fec86154f541dec0d0 ""
  "/usr/share/texmf-dist/tex/latex/caption/caption3.sty" 1572595918 68575 41af57b9d23e31041c5fb63021aa6d56 ""
  "/usr/share/texmf-dist/tex/latex/caption/subcaption.sty" 1572595918 6122 bfe7acc131951843bf919759c3c339a6 ""
  "/usr/share/texmf-dist/tex/latex/collectbox/collectbox.sty" 1572592815 9116 495d44b5a3e7be0c46c5d1f053f457f0 ""
  "/usr/share/texmf-dist/tex/latex/eso-pic/eso-pic.sty" 1572595918 11991 c1669f88e13f8bb6243df144e456b477 ""
  "/usr/share/texmf-dist/tex/latex/etoolbox/etoolbox.sty" 1572595918 45259 743c52a37a6e5ed83cfe0e128b2da10d ""
  "/usr/share/texmf-dist/tex/latex/float/float.sty" 1572595918 6749 16d2656a1984957e674b149555f1ea1d ""
  "/usr/share/texmf-dist/tex/latex/geometry/geometry.sty" 1572595918 41645 0653033a985e06c69a2a9cea9a95e31a ""
  "/usr/share/texmf-dist/tex/latex/graphics-cfg/color.cfg" 1572595918 1213 620bba36b25224fa9b7e1ccb4ecb76fd ""
  "/usr/share/texmf-dist/tex/latex/graphics-cfg/graphics.cfg" 1572595918 1224 978390e9c2234eab29404bc21b268d1e ""
  "/usr/share/texmf-dist/tex/latex/graphics-def/pdftex.def" 1572595918 17334 520b9b85ad8a2a48eda3f643e27a5179 ""
  "/usr/share/texmf-dist/tex/latex/graphics/color.sty" 1572595918 7027 3fe334b366b81600335fd2c862b4b178 ""
  "/usr/share/texmf-dist/tex/latex/graphics/graphics.sty" 1572595918 16458 1bb0e1418e20f598314cbad8ab796f2f ""
  "/usr/share/texmf-dist/tex/latex/graphics/graphicx.sty" 1572595918 9057 e434b0c2dbde71054f2dde205cf3bde4 ""
  "/usr/share/texmf-dist/tex/latex/graphics/keyval.sty" 1572595918 2590 3aa06f747eb7e19c8d68947f1828fd06 ""
  "/usr/share/texmf-dist/tex/latex/graphics/lscape.sty" 1572595918 1753 5c7d7d6327d08bcb5ccea1135381eff4 ""
  "/usr/share/texmf-dist/tex/latex/graphics/trig.sty" 1572595918 3976 f6c84526d8a14dceb492f9a764e82175 ""
  "/usr/share/texmf-dist/tex/latex/hyperref/hpdftex.def" 1572595918 50230 309aa2909ff6290dbda5045c1337012c ""
  "/usr/share/texmf-dist/tex/latex/hyperref/hyperref.sty" 1572595918 237978 e4178d76d356458ee5b5bd9824c0b5ad ""
  "/usr/share/texmf-dist/tex/latex/hyperref/nameref.sty" 1572595918 13244 a88fa0a3a6ad5b15d16d610d96a714c3 ""
  "/usr/share/texmf-dist/tex/latex/hyperref/pd1enc.def" 1572595918 14125 9a4c1cce42012c8e8ca01d29ccf79db0 ""
  "/usr/share/texmf-dist/tex/latex/ifoddpage/ifoddpage.sty" 1572592815 2148 0426cd8bb94163c1e23726d0c15e2c21 ""
  "/usr/share/texmf-dist/tex/latex/import/import.sty" 1572592815 5149 44c7223e2a76dc66e41be8c1fb1477de ""
  "/usr/share/texmf-dist/tex/latex/l3backend/l3backend-pdfmode.def" 1572595918 25404 0825d673bb6474ecfa27715c709e4f08 ""
  "/usr/share/texmf-dist/tex/latex/l3kernel/expl3-code.tex" 1572595918 1018098 68ee75e58b3e6c647f137094569be036 ""
  "/usr/share/texmf-dist/tex/latex/l3kernel/expl3.sty" 1572595918 4381 bb0468277e5fe92757223d98f2cad58e ""
  "/usr/share/texmf-dist/tex/latex/l3kernel/l3deprecation.def" 1572595918 9892 1ec016acc4d32bf498c20738383470b5 ""
  "/usr/share/texmf-dist/tex/latex/l3packages/l3keys2e/l3keys2e.sty" 1572595918 4520 1161269abe88ec94dddd509a3b3582fd ""
  "/usr/share/texmf-dist/tex/latex/l3packages/xfrac/xfrac.sty" 1572595918 14694 cbed78c4565cd904888cfd1587750a80 ""
  "/usr/share/texmf-dist/tex/latex/l3packages/xparse/xparse.sty" 1572595918 81717 03294ce0fabc3e7b7749bf6850c22be8 ""
  "/usr/share/texmf-dist/tex/latex/l3packages/xtemplate/xtemplate.sty" 1572595918 48197 3bd12ef61d9ee3feeefb599d13460bc1 ""
  "/usr/share/texmf-dist/tex/latex/latexconfig/epstopdf-sys.cfg" 1572595918 678 4792914a8f45be57bb98413425e4c7af ""
  "/usr/share/texmf-dist/tex/latex/latexconfig/hyperref.cfg" 1572595918 235 6031e5765137be07eed51a510b2b8fb7 ""
  "/usr/share/texmf-dist/tex/latex/logreq/logreq.def" 1572567841 1620 fb1c32b818f2058eca187e5c41dfae77 ""
  "/usr/share/texmf-dist/tex/latex/logreq/logreq.sty" 1572567841 6187 b27afc771af565d3a9ff1ca7d16d0d46 ""
  "/usr/share/texmf-dist/tex/latex/mathtools/mathtools.sty" 1572595918 55028 f5cc7f943da0d539d33e527fd34088c8 ""
  "/usr/share/texmf-dist/tex/latex/mathtools/mhsetup.sty" 1572595918 5317 cf75154a8a7e6436f05a5be497f0b05e ""
  "/usr/share/texmf-dist/tex/latex/mdframed/md-frame-0.mdf" 1572592815 24831 326d9f019009ed0c076106fa6cb860fb ""
  "/usr/share/texmf-dist/tex/latex/mdframed/mdframed.sty" 1572592815 53487 3e997243f47cb3ba8b4c7b8df9c82989 ""
  "/usr/share/texmf-dist/tex/latex/needspace/needspace.sty" 1572592815 852 0e34dbb72efc69fa07602405ad95585e ""
  "/usr/share/texmf-dist/tex/latex/oberdiek/auxhook.sty" 1572595918 3834 4363110eb0ef1eb2b71c8fcbcdb6c357 ""
  "/usr/share/texmf-dist/tex/latex/oberdiek/epstopdf-base.sty" 1572595918 12095 5337833c991d80788a43d3ce26bd1c46 ""
  "/usr/share/texmf-dist/tex/latex/oberdiek/grfext.sty" 1572595918 7075 2fe3d848bba95f139de11ded085e74aa ""
  "/usr/share/texmf-dist/tex/latex/oberdiek/kvoptions.sty" 1572595918 22417 1d9df1eb66848aa31b18a593099cf45c ""
  "/usr/share/texmf-dist/tex/latex/oberdiek/pdflscape.sty" 1572595918 6688 c84de1eae6cda82865a6d3d09e339ec9 ""
  "/usr/share/texmf-dist/tex/latex/oberdiek/rerunfilecheck.sty" 1572595918 9581 023642318cef9f4677efe364de1e2a27 ""
  "/usr/share/texmf-dist/tex/latex/oberdiek/transparent.sty" 1572595918 4050 bea5a8c8527aabf340359a2f25fd6e2c ""
  "/usr/share/texmf-dist/tex/latex/oberdiek/zref-abspage.sty" 1572595918 2153 97f0908b85d3e2d2589cffbe50932be8 ""
  "/usr/share/texmf-dist/tex/latex/oberdiek/zref-base.sty" 1572595918 20510 c53f28ef33a3eb08237ac523fc267148 ""
  "/usr/share/texmf-dist/tex/latex/pdfpages/pdfpages.sty" 1572595918 53046 280e00ad8221b2605a2ea235178c5652 ""
  "/usr/share/texmf-dist/tex/latex/pdfpages/pppdftex.def" 1572595918 6364 43d763de7dc5f88d70f522a31934e40d ""
  "/usr/share/texmf-dist/tex/latex/pxfonts/omlpxmi.fd" 1572595918 482 63621b814382da86b0331a0884fcd58c ""
  "/usr/share/texmf-dist/tex/latex/pxfonts/omspxsy.fd" 1572595918 329 e15c8b040633793aa354b0bc24b01688 ""
  "/usr/share/texmf-dist/tex/latex/pxfonts/omxpxex.fd" 1572595918 312 f3df603dafe936cc86a6ea8c6be9b266 ""
  "/usr/share/texmf-dist/tex/latex/pxfonts/ot1pxr.fd" 1572595918 1271 6269fecd1bb3a87db51945d5407a057f ""
  "/usr/share/texmf-dist/tex/latex/pxfonts/pxfonts.sty" 1572595918 48019 2e3bbf8abfbbf6f838d4511b95247e7d ""
  "/usr/share/texmf-dist/tex/latex/pxfonts/t1pxr.fd" 1572595918 1242 088b82853c553269aed332bb8147eb55 ""
  "/usr/share/texmf-dist/tex/latex/pxfonts/upxexa.fd" 1572595918 310 f6f098de23f2bf849db62de10e9b38a3 ""
  "/usr/share/texmf-dist/tex/latex/pxfonts/upxmia.fd" 1572595918 334 7e77c6e6f52d1daa93ebbbf2b7edc65e ""
  "/usr/share/texmf-dist/tex/latex/pxfonts/upxsya.fd" 1572595918 310 ecdb4750b07ee39789d68c7f28b523ef ""
  "/usr/share/texmf-dist/tex/latex/pxfonts/upxsyb.fd" 1572595918 310 0bc8505695feda7c82a4c392536d9286 ""
  "/usr/share/texmf-dist/tex/latex/pxfonts/upxsyc.fd" 1572595918 310 34cb5f6d371fa39988d441e401ca6171 ""
  "/usr/share/texmf-dist/tex/latex/setspace/setspace.sty" 1572595918 22913 a27d7908fc6f0385466454a966a316eb ""
  "/usr/share/texmf-dist/tex/latex/tools/calc.sty" 1572595918 10216 54c740cb9d999378b16df7e5c92c17a0 ""
  "/usr/share/texmf-dist/tex/latex/tools/enumerate.sty" 1572595918 3469 bb111855092044188dbc6ed4683ad0a9 ""
  "/usr/share/texmf-dist/tex/latex/url/url.sty" 1572595918 12796 8edb7d69a20b857904dd0ea757c14ec9 ""
  "/usr/share/texmf-dist/tex/latex/varwidth/varwidth.sty" 1572592815 10894 d359a13923460b2a73d4312d613554c8 ""
  "/usr/share/texmf-dist/tex/latex/wrapfig/wrapfig.sty" 1572592815 26220 3701aebf80ccdef248c0c20dd062fea9 ""
  "/usr/share/texmf-dist/tex/latex/xcolor/xcolor.sty" 1572595918 55589 34128738f682d033422ca125f82e5d62 ""
  "/usr/share/texmf-dist/tex/latex/xkeyval/xkeyval.sty" 1572595918 4962 9c1069474ff71dbc47d5006555e352d3 ""
  "/usr/share/texmf-dist/web2c/texmf.cnf" 1572595918 33301 a3134070eacafb10b1f371612ce2650d ""
  "/var/lib/texmf/fonts/map/pdftex/updmap/pdftex.map" 1572816478 343389 9fa470cf805ee63c9c72a2dd0868bcae ""
  "/var/lib/texmf/web2c/pdftex/pdflatex.fmt" 1572816439 8044939 ceef81d8d74034a2f62ece969b42e723 ""
  "apuntes.aux" 1573780988 8192 d567eaf784e8c1a7f6bfbd431c03b6a7 "pdflatex"
  "apuntes.bbl" 0 -1 0 "biber apuntes"
  "apuntes.out" 1573780987 0 d41d8cd98f00b204e9800998ecf8427e "pdflatex"
  "apuntes.run.xml" 0 -1 0 "pdflatex"
  "apuntes.tex" 1573194497 3629 e5e4cd4fabc43c70a05342019b934192 ""
  "apuntes.toc" 1573780987 0 d41d8cd98f00b204e9800998ecf8427e "pdflatex"
  "figures/diagrama_conmutativo.pdf" 1566498829 1125 03a525483300d4a89ea51d47ef08b8f4 ""
  "figures/diagrama_conmutativo.pdf_tex" 1566498829 3027 3f001c85d54b60b50b410a9560579931 ""
  "figures/particioness3.pdf" 1566412295 1833 c55d4bda71c451e8155e169f36d00d6c ""
  "figures/particioness3.pdf_tex" 1566412295 4630 4f2858260141d097b14ba0f9929fe5ae ""
  "tex/parcial1/ciclicos.tex" 1570817825 6873 43240b2ca4c986205d043f07003649d3 ""
  "tex/parcial1/grupos.tex" 1570817648 23329 aa143d87f2df7e12968cb6d2edf36607 ""
  "tex/parcial1/parcial1.tex" 1570154039 153 6be2b68c70de0fddd834f5aa29a0ec6b ""
  "tex/parcial1/subgrupos.tex" 1570817706 13458 d4ba9d83d65a4714d38a90b80daeaea2 ""
  "tex/parcial2/acciones.tex" 1570755910 7285 a1ce4c0dfdcec51b7179d5e90a325770 ""
  "tex/parcial2/cocientes.tex" 1570748259 4045 20ae9892b72245c9b2d18614f5170ef9 ""
  "tex/parcial2/homomorfismos.tex" 1573601303 16221 811c8c456ff73ac24196954b4c8f1bc2 ""
  "tex/parcial2/normales.tex" 1570748132 2560 718c3af0c28712d4983b35eb9ee6ee51 ""
  "tex/parcial2/parcial2.tex" 1570154049 234 2712f76ade88a3783887cd92afe3da4f ""
  "tex/parcial3/abelianos.tex" 1573780984 5749 048d6c8f481a41d387d3be09fd92f313 ""
  "tex/parcial3/directo.tex" 1573101782 3407 de8c73976b76b4c60654915b8b64c0e2 ""
  "tex/parcial3/parcial3.tex" 1570154073 344 1d76d078be7fd17fa6d79db10510a3e3 ""
  "tex/parcial3/simetrico.tex" 1573506442 13538 2721df3b464a552298816551eb0822e1 ""
  "tex/parcial3/solubles.tex" 1570143020 0 d41d8cd98f00b204e9800998ecf8427e ""
  "tex/parcial3/sylow.tex" 1573588235 11174 eaf83b19f040b0e216991050bef4209c ""
  (generated)
  "apuntes.log"
  "apuntes.run.xml"
  "apuntes.out"
  "apuntes.aux"
  "apuntes.toc"
  "apuntes.pdf"
  "apuntes.bcf"
